^E:\VISUAL STUDIO\SOURCE\REPOS\OOP_SECOND_PROJECT\OOP_SECOND_PROJECT\DEBUG\LONG_INT.OBJ|E:\VISUAL STUDIO\SOURCE\REPOS\OOP_SECOND_PROJECT\OOP_SECOND_PROJECT\DEBUG\SOURCE.OBJ
E:\WINDOWS KITS\10\LIB\10.0.19041.0\UM\X86\KERNEL32.LIB
E:\WINDOWS KITS\10\LIB\10.0.19041.0\UM\X86\USER32.LIB
E:\WINDOWS KITS\10\LIB\10.0.19041.0\UM\X86\GDI32.LIB
E:\WINDOWS KITS\10\LIB\10.0.19041.0\UM\X86\WINSPOOL.LIB
E:\WINDOWS KITS\10\LIB\10.0.19041.0\UM\X86\COMDLG32.LIB
E:\WINDOWS KITS\10\LIB\10.0.19041.0\UM\X86\ADVAPI32.LIB
E:\WINDOWS KITS\10\LIB\10.0.19041.0\UM\X86\SHELL32.LIB
E:\WINDOWS KITS\10\LIB\10.0.19041.0\UM\X86\OLE32.LIB
E:\WINDOWS KITS\10\LIB\10.0.19041.0\UM\X86\OLEAUT32.LIB
E:\WINDOWS KITS\10\LIB\10.0.19041.0\UM\X86\UUID.LIB
E:\WINDOWS KITS\10\LIB\10.0.19041.0\UM\X86\ODBC32.LIB
E:\WINDOWS KITS\10\LIB\10.0.19041.0\UM\X86\ODBCCP32.LIB
E:\VISUAL STUDIO\SOURCE\REPOS\OOP_SECOND_PROJECT\OOP_SECOND_PROJECT\DEBUG\LONG_INT.OBJ
E:\VISUAL STUDIO\SOURCE\REPOS\OOP_SECOND_PROJECT\OOP_SECOND_PROJECT\DEBUG\SOURCE.OBJ
E:\VISUAL STUDIO\SOURCE\REPOS\OOP_SECOND_PROJECT\OOP_SECOND_PROJECT\DEBUG\OOP_SECOND_PROJECT.ILK
C:\WINDOWS\SYSTEM32\TZRES.DLL
C:\WINDOWS\GLOBALIZATION\SORTING\SORTDEFAULT.NLS
E:\APPS\VISUAL STUDIO\MICROSOFT VISUAL STUDIO\2019\COMMUNITY\VC\TOOLS\MSVC\14.29.30133\LIB\X86\MSVCPRTD.LIB
E:\APPS\VISUAL STUDIO\MICROSOFT VISUAL STUDIO\2019\COMMUNITY\VC\TOOLS\MSVC\14.29.30133\LIB\X86\MSVCRTD.LIB
E:\APPS\VISUAL STUDIO\MICROSOFT VISUAL STUDIO\2019\COMMUNITY\VC\TOOLS\MSVC\14.29.30133\LIB\X86\OLDNAMES.LIB
E:\APPS\VISUAL STUDIO\MICROSOFT VISUAL STUDIO\2019\COMMUNITY\VC\TOOLS\MSVC\14.29.30133\LIB\X86\VCRUNTIMED.LIB
E:\WINDOWS KITS\10\LIB\10.0.19041.0\UCRT\X86\UCRTD.LIB
E:\APPS\VISUAL STUDIO\MICROSOFT VISUAL STUDIO\2019\COMMUNITY\VC\TOOLS\MSVC\14.29.30133\BIN\HOSTX86\X86\CVTRES.EXE
E:\APPS\VISUAL STUDIO\MICROSOFT VISUAL STUDIO\2019\COMMUNITY\VC\TOOLS\MSVC\14.29.30133\BIN\HOSTX86\X86\MSPDBSRV.EXE
